('C:\\Users\\RECEPCION NETCOM PLU\\Documents\\Zabbix\\dist\\main.exe',
 True,
 False,
 False,
 'C:\\Users\\RECEPCION NETCOM '
 'PLU\\AppData\\Local\\Programs\\Python\\Python311\\Lib\\site-packages\\PyInstaller\\bootloader\\images\\icon-console.ico',
 None,
 False,
 False,
 '<?xml version="1.0" encoding="UTF-8" standalone="yes"?><assembly xmlns="urn:schemas-microsoft-com:asm.v1" manifestVersion="1.0"><assemblyIdentity type="win32" name="main" processorArchitecture="amd64" version="1.0.0.0"/><trustInfo xmlns="urn:schemas-microsoft-com:asm.v3"><security><requestedPrivileges><requestedExecutionLevel level="asInvoker" uiAccess="false"/></requestedPrivileges></security></trustInfo><dependency><dependentAssembly><assemblyIdentity type="win32" name="Microsoft.Windows.Common-Controls" language="*" processorArchitecture="*" version="6.0.0.0" publicKeyToken="6595b64144ccf1df"/></dependentAssembly></dependency><compatibility xmlns="urn:schemas-microsoft-com:compatibility.v1"><application><supportedOS Id="{e2011457-1546-43c5-a5fe-008deee3d3f0}"/><supportedOS Id="{35138b9a-5d96-4fbd-8e2d-a2440225f93a}"/><supportedOS Id="{4a2f28e3-53b9-4441-ba9c-d69d4a4a6e38}"/><supportedOS Id="{1f676c76-80e1-4239-95bb-83d0f6d0da78}"/><supportedOS Id="{8e0f7a12-bfb3-4fe8-b9a5-48fd50a15a9a}"/></application></compatibility><application xmlns="urn:schemas-microsoft-com:asm.v3"><windowsSettings><longPathAware xmlns="http://schemas.microsoft.com/SMI/2016/WindowsSettings">true</longPathAware></windowsSettings></application></assembly>',
 True,
 True,
 False,
 None,
 None,
 None,
 'C:\\Users\\RECEPCION NETCOM PLU\\Documents\\Zabbix\\build\\main\\main.pkg',
 [('PYZ-00.pyz',
   'C:\\Users\\RECEPCION NETCOM '
   'PLU\\Documents\\Zabbix\\build\\main\\PYZ-00.pyz',
   'PYZ'),
  ('struct',
   'C:\\Users\\RECEPCION NETCOM '
   'PLU\\Documents\\Zabbix\\build\\main\\localpycs\\struct.pyc',
   'PYMODULE'),
  ('pyimod01_archive',
   'C:\\Users\\RECEPCION NETCOM '
   'PLU\\Documents\\Zabbix\\build\\main\\localpycs\\pyimod01_archive.pyc',
   'PYMODULE'),
  ('pyimod02_importers',
   'C:\\Users\\RECEPCION NETCOM '
   'PLU\\Documents\\Zabbix\\build\\main\\localpycs\\pyimod02_importers.pyc',
   'PYMODULE'),
  ('pyimod03_ctypes',
   'C:\\Users\\RECEPCION NETCOM '
   'PLU\\Documents\\Zabbix\\build\\main\\localpycs\\pyimod03_ctypes.pyc',
   'PYMODULE'),
  ('pyimod04_pywin32',
   'C:\\Users\\RECEPCION NETCOM '
   'PLU\\Documents\\Zabbix\\build\\main\\localpycs\\pyimod04_pywin32.pyc',
   'PYMODULE'),
  ('pyiboot01_bootstrap',
   'C:\\Users\\RECEPCION NETCOM '
   'PLU\\AppData\\Local\\Programs\\Python\\Python311\\Lib\\site-packages\\PyInstaller\\loader\\pyiboot01_bootstrap.py',
   'PYSOURCE'),
  ('pyi_rth_inspect',
   'C:\\Users\\RECEPCION NETCOM '
   'PLU\\AppData\\Local\\Programs\\Python\\Python311\\Lib\\site-packages\\PyInstaller\\hooks\\rthooks\\pyi_rth_inspect.py',
   'PYSOURCE'),
  ('main',
   'C:\\Users\\RECEPCION NETCOM PLU\\Documents\\Zabbix\\main.py',
   'PYSOURCE'),
  ('api-ms-win-crt-runtime-l1-1-0.dll',
   'C:\\Program '
   'Files\\Microsoft\\jdk-11.0.12.7-hotspot\\bin\\api-ms-win-crt-runtime-l1-1-0.dll',
   'BINARY'),
  ('api-ms-win-crt-stdio-l1-1-0.dll',
   'C:\\Program '
   'Files\\Microsoft\\jdk-11.0.12.7-hotspot\\bin\\api-ms-win-crt-stdio-l1-1-0.dll',
   'BINARY'),
  ('python311.dll',
   'C:\\Users\\RECEPCION NETCOM '
   'PLU\\AppData\\Local\\Programs\\Python\\Python311\\python311.dll',
   'BINARY'),
  ('api-ms-win-crt-math-l1-1-0.dll',
   'C:\\Program '
   'Files\\Microsoft\\jdk-11.0.12.7-hotspot\\bin\\api-ms-win-crt-math-l1-1-0.dll',
   'BINARY'),
  ('api-ms-win-crt-locale-l1-1-0.dll',
   'C:\\Program '
   'Files\\Microsoft\\jdk-11.0.12.7-hotspot\\bin\\api-ms-win-crt-locale-l1-1-0.dll',
   'BINARY'),
  ('VCRUNTIME140.dll',
   'C:\\Users\\RECEPCION NETCOM '
   'PLU\\AppData\\Local\\Programs\\Python\\Python311\\VCRUNTIME140.dll',
   'BINARY'),
  ('api-ms-win-crt-heap-l1-1-0.dll',
   'C:\\Program '
   'Files\\Microsoft\\jdk-11.0.12.7-hotspot\\bin\\api-ms-win-crt-heap-l1-1-0.dll',
   'BINARY'),
  ('ucrtbase.dll',
   'C:\\Program Files\\Microsoft\\jdk-11.0.12.7-hotspot\\bin\\ucrtbase.dll',
   'BINARY'),
  ('api-ms-win-crt-filesystem-l1-1-0.dll',
   'C:\\Program '
   'Files\\Microsoft\\jdk-11.0.12.7-hotspot\\bin\\api-ms-win-crt-filesystem-l1-1-0.dll',
   'BINARY'),
  ('api-ms-win-crt-conio-l1-1-0.dll',
   'C:\\Program '
   'Files\\Microsoft\\jdk-11.0.12.7-hotspot\\bin\\api-ms-win-crt-conio-l1-1-0.dll',
   'BINARY'),
  ('api-ms-win-crt-string-l1-1-0.dll',
   'C:\\Program '
   'Files\\Microsoft\\jdk-11.0.12.7-hotspot\\bin\\api-ms-win-crt-string-l1-1-0.dll',
   'BINARY'),
  ('api-ms-win-crt-process-l1-1-0.dll',
   'C:\\Program '
   'Files\\Microsoft\\jdk-11.0.12.7-hotspot\\bin\\api-ms-win-crt-process-l1-1-0.dll',
   'BINARY'),
  ('api-ms-win-crt-time-l1-1-0.dll',
   'C:\\Program '
   'Files\\Microsoft\\jdk-11.0.12.7-hotspot\\bin\\api-ms-win-crt-time-l1-1-0.dll',
   'BINARY'),
  ('api-ms-win-crt-convert-l1-1-0.dll',
   'C:\\Program '
   'Files\\Microsoft\\jdk-11.0.12.7-hotspot\\bin\\api-ms-win-crt-convert-l1-1-0.dll',
   'BINARY'),
  ('api-ms-win-crt-environment-l1-1-0.dll',
   'C:\\Program '
   'Files\\Microsoft\\jdk-11.0.12.7-hotspot\\bin\\api-ms-win-crt-environment-l1-1-0.dll',
   'BINARY'),
  ('api-ms-win-core-console-l1-1-0.dll',
   'C:\\Program '
   'Files\\Microsoft\\jdk-11.0.12.7-hotspot\\bin\\api-ms-win-core-console-l1-1-0.dll',
   'BINARY'),
  ('api-ms-win-core-synch-l1-1-0.dll',
   'C:\\Program '
   'Files\\Microsoft\\jdk-11.0.12.7-hotspot\\bin\\api-ms-win-core-synch-l1-1-0.dll',
   'BINARY'),
  ('api-ms-win-core-util-l1-1-0.dll',
   'C:\\Program '
   'Files\\Microsoft\\jdk-11.0.12.7-hotspot\\bin\\api-ms-win-core-util-l1-1-0.dll',
   'BINARY'),
  ('api-ms-win-core-memory-l1-1-0.dll',
   'C:\\Program '
   'Files\\Microsoft\\jdk-11.0.12.7-hotspot\\bin\\api-ms-win-core-memory-l1-1-0.dll',
   'BINARY'),
  ('api-ms-win-core-timezone-l1-1-0.dll',
   'C:\\Program '
   'Files\\Microsoft\\jdk-11.0.12.7-hotspot\\bin\\api-ms-win-core-timezone-l1-1-0.dll',
   'BINARY'),
  ('api-ms-win-core-file-l2-1-0.dll',
   'C:\\Program '
   'Files\\Microsoft\\jdk-11.0.12.7-hotspot\\bin\\api-ms-win-core-file-l2-1-0.dll',
   'BINARY'),
  ('api-ms-win-core-file-l1-2-0.dll',
   'C:\\Program '
   'Files\\Microsoft\\jdk-11.0.12.7-hotspot\\bin\\api-ms-win-core-file-l1-2-0.dll',
   'BINARY'),
  ('api-ms-win-core-heap-l1-1-0.dll',
   'C:\\Program '
   'Files\\Microsoft\\jdk-11.0.12.7-hotspot\\bin\\api-ms-win-core-heap-l1-1-0.dll',
   'BINARY'),
  ('api-ms-win-core-errorhandling-l1-1-0.dll',
   'C:\\Program '
   'Files\\Microsoft\\jdk-11.0.12.7-hotspot\\bin\\api-ms-win-core-errorhandling-l1-1-0.dll',
   'BINARY'),
  ('api-ms-win-core-processenvironment-l1-1-0.dll',
   'C:\\Program '
   'Files\\Microsoft\\jdk-11.0.12.7-hotspot\\bin\\api-ms-win-core-processenvironment-l1-1-0.dll',
   'BINARY'),
  ('api-ms-win-core-localization-l1-2-0.dll',
   'C:\\Program '
   'Files\\Microsoft\\jdk-11.0.12.7-hotspot\\bin\\api-ms-win-core-localization-l1-2-0.dll',
   'BINARY'),
  ('api-ms-win-core-libraryloader-l1-1-0.dll',
   'C:\\Program '
   'Files\\Microsoft\\jdk-11.0.12.7-hotspot\\bin\\api-ms-win-core-libraryloader-l1-1-0.dll',
   'BINARY'),
  ('api-ms-win-core-namedpipe-l1-1-0.dll',
   'C:\\Program '
   'Files\\Microsoft\\jdk-11.0.12.7-hotspot\\bin\\api-ms-win-core-namedpipe-l1-1-0.dll',
   'BINARY'),
  ('api-ms-win-core-string-l1-1-0.dll',
   'C:\\Program '
   'Files\\Microsoft\\jdk-11.0.12.7-hotspot\\bin\\api-ms-win-core-string-l1-1-0.dll',
   'BINARY'),
  ('api-ms-win-core-processthreads-l1-1-1.dll',
   'C:\\Program '
   'Files\\Microsoft\\jdk-11.0.12.7-hotspot\\bin\\api-ms-win-core-processthreads-l1-1-1.dll',
   'BINARY'),
  ('api-ms-win-core-file-l1-1-0.dll',
   'C:\\Program '
   'Files\\Microsoft\\jdk-11.0.12.7-hotspot\\bin\\api-ms-win-core-file-l1-1-0.dll',
   'BINARY'),
  ('api-ms-win-core-profile-l1-1-0.dll',
   'C:\\Program '
   'Files\\Microsoft\\jdk-11.0.12.7-hotspot\\bin\\api-ms-win-core-profile-l1-1-0.dll',
   'BINARY'),
  ('api-ms-win-core-rtlsupport-l1-1-0.dll',
   'C:\\Program '
   'Files\\Microsoft\\jdk-11.0.12.7-hotspot\\bin\\api-ms-win-core-rtlsupport-l1-1-0.dll',
   'BINARY'),
  ('api-ms-win-core-sysinfo-l1-1-0.dll',
   'C:\\Program '
   'Files\\Microsoft\\jdk-11.0.12.7-hotspot\\bin\\api-ms-win-core-sysinfo-l1-1-0.dll',
   'BINARY'),
  ('api-ms-win-core-handle-l1-1-0.dll',
   'C:\\Program '
   'Files\\Microsoft\\jdk-11.0.12.7-hotspot\\bin\\api-ms-win-core-handle-l1-1-0.dll',
   'BINARY'),
  ('api-ms-win-core-interlocked-l1-1-0.dll',
   'C:\\Program '
   'Files\\Microsoft\\jdk-11.0.12.7-hotspot\\bin\\api-ms-win-core-interlocked-l1-1-0.dll',
   'BINARY'),
  ('api-ms-win-core-datetime-l1-1-0.dll',
   'C:\\Program '
   'Files\\Microsoft\\jdk-11.0.12.7-hotspot\\bin\\api-ms-win-core-datetime-l1-1-0.dll',
   'BINARY'),
  ('api-ms-win-core-synch-l1-2-0.dll',
   'C:\\Program '
   'Files\\Microsoft\\jdk-11.0.12.7-hotspot\\bin\\api-ms-win-core-synch-l1-2-0.dll',
   'BINARY'),
  ('api-ms-win-core-processthreads-l1-1-0.dll',
   'C:\\Program '
   'Files\\Microsoft\\jdk-11.0.12.7-hotspot\\bin\\api-ms-win-core-processthreads-l1-1-0.dll',
   'BINARY'),
  ('api-ms-win-core-debug-l1-1-0.dll',
   'C:\\Program '
   'Files\\Microsoft\\jdk-11.0.12.7-hotspot\\bin\\api-ms-win-core-debug-l1-1-0.dll',
   'BINARY'),
  ('_decimal.pyd',
   'C:\\Users\\RECEPCION NETCOM '
   'PLU\\AppData\\Local\\Programs\\Python\\Python311\\DLLs\\_decimal.pyd',
   'EXTENSION'),
  ('_hashlib.pyd',
   'C:\\Users\\RECEPCION NETCOM '
   'PLU\\AppData\\Local\\Programs\\Python\\Python311\\DLLs\\_hashlib.pyd',
   'EXTENSION'),
  ('_lzma.pyd',
   'C:\\Users\\RECEPCION NETCOM '
   'PLU\\AppData\\Local\\Programs\\Python\\Python311\\DLLs\\_lzma.pyd',
   'EXTENSION'),
  ('_bz2.pyd',
   'C:\\Users\\RECEPCION NETCOM '
   'PLU\\AppData\\Local\\Programs\\Python\\Python311\\DLLs\\_bz2.pyd',
   'EXTENSION'),
  ('select.pyd',
   'C:\\Users\\RECEPCION NETCOM '
   'PLU\\AppData\\Local\\Programs\\Python\\Python311\\DLLs\\select.pyd',
   'EXTENSION'),
  ('_socket.pyd',
   'C:\\Users\\RECEPCION NETCOM '
   'PLU\\AppData\\Local\\Programs\\Python\\Python311\\DLLs\\_socket.pyd',
   'EXTENSION'),
  ('unicodedata.pyd',
   'C:\\Users\\RECEPCION NETCOM '
   'PLU\\AppData\\Local\\Programs\\Python\\Python311\\DLLs\\unicodedata.pyd',
   'EXTENSION'),
  ('_ssl.pyd',
   'C:\\Users\\RECEPCION NETCOM '
   'PLU\\AppData\\Local\\Programs\\Python\\Python311\\DLLs\\_ssl.pyd',
   'EXTENSION'),
  ('_queue.pyd',
   'C:\\Users\\RECEPCION NETCOM '
   'PLU\\AppData\\Local\\Programs\\Python\\Python311\\DLLs\\_queue.pyd',
   'EXTENSION'),
  ('_cffi_backend.cp311-win_amd64.pyd',
   'C:\\Users\\RECEPCION NETCOM '
   'PLU\\AppData\\Local\\Programs\\Python\\Python311\\Lib\\site-packages\\_cffi_backend.cp311-win_amd64.pyd',
   'EXTENSION'),
  ('cryptography\\hazmat\\bindings\\_openssl.pyd',
   'C:\\Users\\RECEPCION NETCOM '
   'PLU\\AppData\\Local\\Programs\\Python\\Python311\\Lib\\site-packages\\cryptography\\hazmat\\bindings\\_openssl.pyd',
   'EXTENSION'),
  ('cryptography\\hazmat\\bindings\\_rust.pyd',
   'C:\\Users\\RECEPCION NETCOM '
   'PLU\\AppData\\Local\\Programs\\Python\\Python311\\Lib\\site-packages\\cryptography\\hazmat\\bindings\\_rust.pyd',
   'EXTENSION'),
  ('bcrypt\\_bcrypt.pyd',
   'C:\\Users\\RECEPCION NETCOM '
   'PLU\\AppData\\Local\\Programs\\Python\\Python311\\Lib\\site-packages\\bcrypt\\_bcrypt.pyd',
   'EXTENSION'),
  ('libcrypto-1_1.dll',
   'C:\\Users\\RECEPCION NETCOM '
   'PLU\\AppData\\Local\\Programs\\Python\\Python311\\DLLs\\libcrypto-1_1.dll',
   'BINARY'),
  ('libssl-1_1.dll',
   'C:\\Users\\RECEPCION NETCOM '
   'PLU\\AppData\\Local\\Programs\\Python\\Python311\\DLLs\\libssl-1_1.dll',
   'BINARY'),
  ('python3.dll',
   'C:\\Users\\RECEPCION NETCOM '
   'PLU\\AppData\\Local\\Programs\\Python\\Python311\\python3.dll',
   'BINARY'),
  ('api-ms-win-crt-utility-l1-1-0.dll',
   'C:\\Program '
   'Files\\Microsoft\\jdk-11.0.12.7-hotspot\\bin\\api-ms-win-crt-utility-l1-1-0.dll',
   'BINARY'),
  ('base_library.zip',
   'C:\\Users\\RECEPCION NETCOM '
   'PLU\\Documents\\Zabbix\\build\\main\\base_library.zip',
   'DATA'),
  ('cryptography-38.0.3.dist-info\\WHEEL',
   'c:\\users\\recepcion netcom '
   'plu\\appdata\\local\\programs\\python\\python311\\lib\\site-packages\\cryptography-38.0.3.dist-info\\WHEEL',
   'DATA'),
  ('certifi\\py.typed',
   'C:\\Users\\RECEPCION NETCOM '
   'PLU\\AppData\\Roaming\\Python\\Python311\\site-packages\\certifi\\py.typed',
   'DATA'),
  ('certifi\\cacert.pem',
   'C:\\Users\\RECEPCION NETCOM '
   'PLU\\AppData\\Roaming\\Python\\Python311\\site-packages\\certifi\\cacert.pem',
   'DATA'),
  ('cryptography-38.0.3.dist-info\\INSTALLER',
   'c:\\users\\recepcion netcom '
   'plu\\appdata\\local\\programs\\python\\python311\\lib\\site-packages\\cryptography-38.0.3.dist-info\\INSTALLER',
   'DATA'),
  ('cryptography-38.0.3.dist-info\\METADATA',
   'c:\\users\\recepcion netcom '
   'plu\\appdata\\local\\programs\\python\\python311\\lib\\site-packages\\cryptography-38.0.3.dist-info\\METADATA',
   'DATA'),
  ('cryptography-38.0.3.dist-info\\LICENSE.BSD',
   'c:\\users\\recepcion netcom '
   'plu\\appdata\\local\\programs\\python\\python311\\lib\\site-packages\\cryptography-38.0.3.dist-info\\LICENSE.BSD',
   'DATA'),
  ('cryptography-38.0.3.dist-info\\LICENSE.APACHE',
   'c:\\users\\recepcion netcom '
   'plu\\appdata\\local\\programs\\python\\python311\\lib\\site-packages\\cryptography-38.0.3.dist-info\\LICENSE.APACHE',
   'DATA'),
  ('cryptography-38.0.3.dist-info\\LICENSE',
   'c:\\users\\recepcion netcom '
   'plu\\appdata\\local\\programs\\python\\python311\\lib\\site-packages\\cryptography-38.0.3.dist-info\\LICENSE',
   'DATA'),
  ('cryptography-38.0.3.dist-info\\LICENSE.PSF',
   'c:\\users\\recepcion netcom '
   'plu\\appdata\\local\\programs\\python\\python311\\lib\\site-packages\\cryptography-38.0.3.dist-info\\LICENSE.PSF',
   'DATA'),
  ('cryptography-38.0.3.dist-info\\RECORD',
   'c:\\users\\recepcion netcom '
   'plu\\appdata\\local\\programs\\python\\python311\\lib\\site-packages\\cryptography-38.0.3.dist-info\\RECORD',
   'DATA'),
  ('cryptography-38.0.3.dist-info\\top_level.txt',
   'c:\\users\\recepcion netcom '
   'plu\\appdata\\local\\programs\\python\\python311\\lib\\site-packages\\cryptography-38.0.3.dist-info\\top_level.txt',
   'DATA')],
 [],
 False,
 False,
 1683895347,
 [('run.exe',
   'C:\\Users\\RECEPCION NETCOM '
   'PLU\\AppData\\Local\\Programs\\Python\\Python311\\Lib\\site-packages\\PyInstaller\\bootloader\\Windows-64bit-intel\\run.exe',
   'EXECUTABLE')])
