('C:\\Users\\RECEPCION NETCOM PLU\\Documents\\Zabbix\\build\\main\\PYZ-00.pyz',
 [('__future__',
   'C:\\Users\\RECEPCION NETCOM '
   'PLU\\AppData\\Local\\Programs\\Python\\Python311\\Lib\\__future__.py',
   'PYMODULE'),
  ('_compat_pickle',
   'C:\\Users\\RECEPCION NETCOM '
   'PLU\\AppData\\Local\\Programs\\Python\\Python311\\Lib\\_compat_pickle.py',
   'PYMODULE'),
  ('_compression',
   'C:\\Users\\RECEPCION NETCOM '
   'PLU\\AppData\\Local\\Programs\\Python\\Python311\\Lib\\_compression.py',
   'PYMODULE'),
  ('_py_abc',
   'C:\\Users\\RECEPCION NETCOM '
   'PLU\\AppData\\Local\\Programs\\Python\\Python311\\Lib\\_py_abc.py',
   'PYMODULE'),
  ('_pydecimal',
   'C:\\Users\\RECEPCION NETCOM '
   'PLU\\AppData\\Local\\Programs\\Python\\Python311\\Lib\\_pydecimal.py',
   'PYMODULE'),
  ('_strptime',
   'C:\\Users\\RECEPCION NETCOM '
   'PLU\\AppData\\Local\\Programs\\Python\\Python311\\Lib\\_strptime.py',
   'PYMODULE'),
  ('_threading_local',
   'C:\\Users\\RECEPCION NETCOM '
   'PLU\\AppData\\Local\\Programs\\Python\\Python311\\Lib\\_threading_local.py',
   'PYMODULE'),
  ('argparse',
   'C:\\Users\\RECEPCION NETCOM '
   'PLU\\AppData\\Local\\Programs\\Python\\Python311\\Lib\\argparse.py',
   'PYMODULE'),
  ('ast',
   'C:\\Users\\RECEPCION NETCOM '
   'PLU\\AppData\\Local\\Programs\\Python\\Python311\\Lib\\ast.py',
   'PYMODULE'),
  ('base64',
   'C:\\Users\\RECEPCION NETCOM '
   'PLU\\AppData\\Local\\Programs\\Python\\Python311\\Lib\\base64.py',
   'PYMODULE'),
  ('bcrypt',
   'C:\\Users\\RECEPCION NETCOM '
   'PLU\\AppData\\Local\\Programs\\Python\\Python311\\Lib\\site-packages\\bcrypt\\__init__.py',
   'PYMODULE'),
  ('bcrypt.__about__',
   'C:\\Users\\RECEPCION NETCOM '
   'PLU\\AppData\\Local\\Programs\\Python\\Python311\\Lib\\site-packages\\bcrypt\\__about__.py',
   'PYMODULE'),
  ('bisect',
   'C:\\Users\\RECEPCION NETCOM '
   'PLU\\AppData\\Local\\Programs\\Python\\Python311\\Lib\\bisect.py',
   'PYMODULE'),
  ('bz2',
   'C:\\Users\\RECEPCION NETCOM '
   'PLU\\AppData\\Local\\Programs\\Python\\Python311\\Lib\\bz2.py',
   'PYMODULE'),
  ('calendar',
   'C:\\Users\\RECEPCION NETCOM '
   'PLU\\AppData\\Local\\Programs\\Python\\Python311\\Lib\\calendar.py',
   'PYMODULE'),
  ('certifi',
   'C:\\Users\\RECEPCION NETCOM '
   'PLU\\AppData\\Roaming\\Python\\Python311\\site-packages\\certifi\\__init__.py',
   'PYMODULE'),
  ('certifi.core',
   'C:\\Users\\RECEPCION NETCOM '
   'PLU\\AppData\\Roaming\\Python\\Python311\\site-packages\\certifi\\core.py',
   'PYMODULE'),
  ('charset_normalizer',
   'C:\\Users\\RECEPCION NETCOM '
   'PLU\\AppData\\Roaming\\Python\\Python311\\site-packages\\charset_normalizer\\__init__.py',
   'PYMODULE'),
  ('charset_normalizer.api',
   'C:\\Users\\RECEPCION NETCOM '
   'PLU\\AppData\\Roaming\\Python\\Python311\\site-packages\\charset_normalizer\\api.py',
   'PYMODULE'),
  ('charset_normalizer.assets',
   'C:\\Users\\RECEPCION NETCOM '
   'PLU\\AppData\\Roaming\\Python\\Python311\\site-packages\\charset_normalizer\\assets\\__init__.py',
   'PYMODULE'),
  ('charset_normalizer.cd',
   'C:\\Users\\RECEPCION NETCOM '
   'PLU\\AppData\\Roaming\\Python\\Python311\\site-packages\\charset_normalizer\\cd.py',
   'PYMODULE'),
  ('charset_normalizer.constant',
   'C:\\Users\\RECEPCION NETCOM '
   'PLU\\AppData\\Roaming\\Python\\Python311\\site-packages\\charset_normalizer\\constant.py',
   'PYMODULE'),
  ('charset_normalizer.legacy',
   'C:\\Users\\RECEPCION NETCOM '
   'PLU\\AppData\\Roaming\\Python\\Python311\\site-packages\\charset_normalizer\\legacy.py',
   'PYMODULE'),
  ('charset_normalizer.md',
   'C:\\Users\\RECEPCION NETCOM '
   'PLU\\AppData\\Roaming\\Python\\Python311\\site-packages\\charset_normalizer\\md.py',
   'PYMODULE'),
  ('charset_normalizer.models',
   'C:\\Users\\RECEPCION NETCOM '
   'PLU\\AppData\\Roaming\\Python\\Python311\\site-packages\\charset_normalizer\\models.py',
   'PYMODULE'),
  ('charset_normalizer.utils',
   'C:\\Users\\RECEPCION NETCOM '
   'PLU\\AppData\\Roaming\\Python\\Python311\\site-packages\\charset_normalizer\\utils.py',
   'PYMODULE'),
  ('charset_normalizer.version',
   'C:\\Users\\RECEPCION NETCOM '
   'PLU\\AppData\\Roaming\\Python\\Python311\\site-packages\\charset_normalizer\\version.py',
   'PYMODULE'),
  ('configparser',
   'C:\\Users\\RECEPCION NETCOM '
   'PLU\\AppData\\Local\\Programs\\Python\\Python311\\Lib\\configparser.py',
   'PYMODULE'),
  ('contextlib',
   'C:\\Users\\RECEPCION NETCOM '
   'PLU\\AppData\\Local\\Programs\\Python\\Python311\\Lib\\contextlib.py',
   'PYMODULE'),
  ('contextvars',
   'C:\\Users\\RECEPCION NETCOM '
   'PLU\\AppData\\Local\\Programs\\Python\\Python311\\Lib\\contextvars.py',
   'PYMODULE'),
  ('copy',
   'C:\\Users\\RECEPCION NETCOM '
   'PLU\\AppData\\Local\\Programs\\Python\\Python311\\Lib\\copy.py',
   'PYMODULE'),
  ('cryptography',
   'C:\\Users\\RECEPCION NETCOM '
   'PLU\\AppData\\Local\\Programs\\Python\\Python311\\Lib\\site-packages\\cryptography\\__init__.py',
   'PYMODULE'),
  ('cryptography.__about__',
   'C:\\Users\\RECEPCION NETCOM '
   'PLU\\AppData\\Local\\Programs\\Python\\Python311\\Lib\\site-packages\\cryptography\\__about__.py',
   'PYMODULE'),
  ('cryptography.exceptions',
   'C:\\Users\\RECEPCION NETCOM '
   'PLU\\AppData\\Local\\Programs\\Python\\Python311\\Lib\\site-packages\\cryptography\\exceptions.py',
   'PYMODULE'),
  ('cryptography.hazmat',
   'C:\\Users\\RECEPCION NETCOM '
   'PLU\\AppData\\Local\\Programs\\Python\\Python311\\Lib\\site-packages\\cryptography\\hazmat\\__init__.py',
   'PYMODULE'),
  ('cryptography.hazmat._oid',
   'C:\\Users\\RECEPCION NETCOM '
   'PLU\\AppData\\Local\\Programs\\Python\\Python311\\Lib\\site-packages\\cryptography\\hazmat\\_oid.py',
   'PYMODULE'),
  ('cryptography.hazmat.backends',
   'C:\\Users\\RECEPCION NETCOM '
   'PLU\\AppData\\Local\\Programs\\Python\\Python311\\Lib\\site-packages\\cryptography\\hazmat\\backends\\__init__.py',
   'PYMODULE'),
  ('cryptography.hazmat.backends.openssl',
   'C:\\Users\\RECEPCION NETCOM '
   'PLU\\AppData\\Local\\Programs\\Python\\Python311\\Lib\\site-packages\\cryptography\\hazmat\\backends\\openssl\\__init__.py',
   'PYMODULE'),
  ('cryptography.hazmat.backends.openssl.aead',
   'C:\\Users\\RECEPCION NETCOM '
   'PLU\\AppData\\Local\\Programs\\Python\\Python311\\Lib\\site-packages\\cryptography\\hazmat\\backends\\openssl\\aead.py',
   'PYMODULE'),
  ('cryptography.hazmat.backends.openssl.backend',
   'C:\\Users\\RECEPCION NETCOM '
   'PLU\\AppData\\Local\\Programs\\Python\\Python311\\Lib\\site-packages\\cryptography\\hazmat\\backends\\openssl\\backend.py',
   'PYMODULE'),
  ('cryptography.hazmat.backends.openssl.ciphers',
   'C:\\Users\\RECEPCION NETCOM '
   'PLU\\AppData\\Local\\Programs\\Python\\Python311\\Lib\\site-packages\\cryptography\\hazmat\\backends\\openssl\\ciphers.py',
   'PYMODULE'),
  ('cryptography.hazmat.backends.openssl.cmac',
   'C:\\Users\\RECEPCION NETCOM '
   'PLU\\AppData\\Local\\Programs\\Python\\Python311\\Lib\\site-packages\\cryptography\\hazmat\\backends\\openssl\\cmac.py',
   'PYMODULE'),
  ('cryptography.hazmat.backends.openssl.decode_asn1',
   'C:\\Users\\RECEPCION NETCOM '
   'PLU\\AppData\\Local\\Programs\\Python\\Python311\\Lib\\site-packages\\cryptography\\hazmat\\backends\\openssl\\decode_asn1.py',
   'PYMODULE'),
  ('cryptography.hazmat.backends.openssl.dh',
   'C:\\Users\\RECEPCION NETCOM '
   'PLU\\AppData\\Local\\Programs\\Python\\Python311\\Lib\\site-packages\\cryptography\\hazmat\\backends\\openssl\\dh.py',
   'PYMODULE'),
  ('cryptography.hazmat.backends.openssl.dsa',
   'C:\\Users\\RECEPCION NETCOM '
   'PLU\\AppData\\Local\\Programs\\Python\\Python311\\Lib\\site-packages\\cryptography\\hazmat\\backends\\openssl\\dsa.py',
   'PYMODULE'),
  ('cryptography.hazmat.backends.openssl.ec',
   'C:\\Users\\RECEPCION NETCOM '
   'PLU\\AppData\\Local\\Programs\\Python\\Python311\\Lib\\site-packages\\cryptography\\hazmat\\backends\\openssl\\ec.py',
   'PYMODULE'),
  ('cryptography.hazmat.backends.openssl.ed25519',
   'C:\\Users\\RECEPCION NETCOM '
   'PLU\\AppData\\Local\\Programs\\Python\\Python311\\Lib\\site-packages\\cryptography\\hazmat\\backends\\openssl\\ed25519.py',
   'PYMODULE'),
  ('cryptography.hazmat.backends.openssl.ed448',
   'C:\\Users\\RECEPCION NETCOM '
   'PLU\\AppData\\Local\\Programs\\Python\\Python311\\Lib\\site-packages\\cryptography\\hazmat\\backends\\openssl\\ed448.py',
   'PYMODULE'),
  ('cryptography.hazmat.backends.openssl.hashes',
   'C:\\Users\\RECEPCION NETCOM '
   'PLU\\AppData\\Local\\Programs\\Python\\Python311\\Lib\\site-packages\\cryptography\\hazmat\\backends\\openssl\\hashes.py',
   'PYMODULE'),
  ('cryptography.hazmat.backends.openssl.hmac',
   'C:\\Users\\RECEPCION NETCOM '
   'PLU\\AppData\\Local\\Programs\\Python\\Python311\\Lib\\site-packages\\cryptography\\hazmat\\backends\\openssl\\hmac.py',
   'PYMODULE'),
  ('cryptography.hazmat.backends.openssl.poly1305',
   'C:\\Users\\RECEPCION NETCOM '
   'PLU\\AppData\\Local\\Programs\\Python\\Python311\\Lib\\site-packages\\cryptography\\hazmat\\backends\\openssl\\poly1305.py',
   'PYMODULE'),
  ('cryptography.hazmat.backends.openssl.rsa',
   'C:\\Users\\RECEPCION NETCOM '
   'PLU\\AppData\\Local\\Programs\\Python\\Python311\\Lib\\site-packages\\cryptography\\hazmat\\backends\\openssl\\rsa.py',
   'PYMODULE'),
  ('cryptography.hazmat.backends.openssl.utils',
   'C:\\Users\\RECEPCION NETCOM '
   'PLU\\AppData\\Local\\Programs\\Python\\Python311\\Lib\\site-packages\\cryptography\\hazmat\\backends\\openssl\\utils.py',
   'PYMODULE'),
  ('cryptography.hazmat.backends.openssl.x25519',
   'C:\\Users\\RECEPCION NETCOM '
   'PLU\\AppData\\Local\\Programs\\Python\\Python311\\Lib\\site-packages\\cryptography\\hazmat\\backends\\openssl\\x25519.py',
   'PYMODULE'),
  ('cryptography.hazmat.backends.openssl.x448',
   'C:\\Users\\RECEPCION NETCOM '
   'PLU\\AppData\\Local\\Programs\\Python\\Python311\\Lib\\site-packages\\cryptography\\hazmat\\backends\\openssl\\x448.py',
   'PYMODULE'),
  ('cryptography.hazmat.backends.openssl.x509',
   'C:\\Users\\RECEPCION NETCOM '
   'PLU\\AppData\\Local\\Programs\\Python\\Python311\\Lib\\site-packages\\cryptography\\hazmat\\backends\\openssl\\x509.py',
   'PYMODULE'),
  ('cryptography.hazmat.bindings',
   'C:\\Users\\RECEPCION NETCOM '
   'PLU\\AppData\\Local\\Programs\\Python\\Python311\\Lib\\site-packages\\cryptography\\hazmat\\bindings\\__init__.py',
   'PYMODULE'),
  ('cryptography.hazmat.bindings.openssl',
   'C:\\Users\\RECEPCION NETCOM '
   'PLU\\AppData\\Local\\Programs\\Python\\Python311\\Lib\\site-packages\\cryptography\\hazmat\\bindings\\openssl\\__init__.py',
   'PYMODULE'),
  ('cryptography.hazmat.bindings.openssl._conditional',
   'C:\\Users\\RECEPCION NETCOM '
   'PLU\\AppData\\Local\\Programs\\Python\\Python311\\Lib\\site-packages\\cryptography\\hazmat\\bindings\\openssl\\_conditional.py',
   'PYMODULE'),
  ('cryptography.hazmat.bindings.openssl.binding',
   'C:\\Users\\RECEPCION NETCOM '
   'PLU\\AppData\\Local\\Programs\\Python\\Python311\\Lib\\site-packages\\cryptography\\hazmat\\bindings\\openssl\\binding.py',
   'PYMODULE'),
  ('cryptography.hazmat.primitives',
   'C:\\Users\\RECEPCION NETCOM '
   'PLU\\AppData\\Local\\Programs\\Python\\Python311\\Lib\\site-packages\\cryptography\\hazmat\\primitives\\__init__.py',
   'PYMODULE'),
  ('cryptography.hazmat.primitives._asymmetric',
   'C:\\Users\\RECEPCION NETCOM '
   'PLU\\AppData\\Local\\Programs\\Python\\Python311\\Lib\\site-packages\\cryptography\\hazmat\\primitives\\_asymmetric.py',
   'PYMODULE'),
  ('cryptography.hazmat.primitives._cipheralgorithm',
   'C:\\Users\\RECEPCION NETCOM '
   'PLU\\AppData\\Local\\Programs\\Python\\Python311\\Lib\\site-packages\\cryptography\\hazmat\\primitives\\_cipheralgorithm.py',
   'PYMODULE'),
  ('cryptography.hazmat.primitives._serialization',
   'C:\\Users\\RECEPCION NETCOM '
   'PLU\\AppData\\Local\\Programs\\Python\\Python311\\Lib\\site-packages\\cryptography\\hazmat\\primitives\\_serialization.py',
   'PYMODULE'),
  ('cryptography.hazmat.primitives.asymmetric',
   'C:\\Users\\RECEPCION NETCOM '
   'PLU\\AppData\\Local\\Programs\\Python\\Python311\\Lib\\site-packages\\cryptography\\hazmat\\primitives\\asymmetric\\__init__.py',
   'PYMODULE'),
  ('cryptography.hazmat.primitives.asymmetric.dh',
   'C:\\Users\\RECEPCION NETCOM '
   'PLU\\AppData\\Local\\Programs\\Python\\Python311\\Lib\\site-packages\\cryptography\\hazmat\\primitives\\asymmetric\\dh.py',
   'PYMODULE'),
  ('cryptography.hazmat.primitives.asymmetric.dsa',
   'C:\\Users\\RECEPCION NETCOM '
   'PLU\\AppData\\Local\\Programs\\Python\\Python311\\Lib\\site-packages\\cryptography\\hazmat\\primitives\\asymmetric\\dsa.py',
   'PYMODULE'),
  ('cryptography.hazmat.primitives.asymmetric.ec',
   'C:\\Users\\RECEPCION NETCOM '
   'PLU\\AppData\\Local\\Programs\\Python\\Python311\\Lib\\site-packages\\cryptography\\hazmat\\primitives\\asymmetric\\ec.py',
   'PYMODULE'),
  ('cryptography.hazmat.primitives.asymmetric.ed25519',
   'C:\\Users\\RECEPCION NETCOM '
   'PLU\\AppData\\Local\\Programs\\Python\\Python311\\Lib\\site-packages\\cryptography\\hazmat\\primitives\\asymmetric\\ed25519.py',
   'PYMODULE'),
  ('cryptography.hazmat.primitives.asymmetric.ed448',
   'C:\\Users\\RECEPCION NETCOM '
   'PLU\\AppData\\Local\\Programs\\Python\\Python311\\Lib\\site-packages\\cryptography\\hazmat\\primitives\\asymmetric\\ed448.py',
   'PYMODULE'),
  ('cryptography.hazmat.primitives.asymmetric.padding',
   'C:\\Users\\RECEPCION NETCOM '
   'PLU\\AppData\\Local\\Programs\\Python\\Python311\\Lib\\site-packages\\cryptography\\hazmat\\primitives\\asymmetric\\padding.py',
   'PYMODULE'),
  ('cryptography.hazmat.primitives.asymmetric.rsa',
   'C:\\Users\\RECEPCION NETCOM '
   'PLU\\AppData\\Local\\Programs\\Python\\Python311\\Lib\\site-packages\\cryptography\\hazmat\\primitives\\asymmetric\\rsa.py',
   'PYMODULE'),
  ('cryptography.hazmat.primitives.asymmetric.types',
   'C:\\Users\\RECEPCION NETCOM '
   'PLU\\AppData\\Local\\Programs\\Python\\Python311\\Lib\\site-packages\\cryptography\\hazmat\\primitives\\asymmetric\\types.py',
   'PYMODULE'),
  ('cryptography.hazmat.primitives.asymmetric.utils',
   'C:\\Users\\RECEPCION NETCOM '
   'PLU\\AppData\\Local\\Programs\\Python\\Python311\\Lib\\site-packages\\cryptography\\hazmat\\primitives\\asymmetric\\utils.py',
   'PYMODULE'),
  ('cryptography.hazmat.primitives.asymmetric.x25519',
   'C:\\Users\\RECEPCION NETCOM '
   'PLU\\AppData\\Local\\Programs\\Python\\Python311\\Lib\\site-packages\\cryptography\\hazmat\\primitives\\asymmetric\\x25519.py',
   'PYMODULE'),
  ('cryptography.hazmat.primitives.asymmetric.x448',
   'C:\\Users\\RECEPCION NETCOM '
   'PLU\\AppData\\Local\\Programs\\Python\\Python311\\Lib\\site-packages\\cryptography\\hazmat\\primitives\\asymmetric\\x448.py',
   'PYMODULE'),
  ('cryptography.hazmat.primitives.ciphers',
   'C:\\Users\\RECEPCION NETCOM '
   'PLU\\AppData\\Local\\Programs\\Python\\Python311\\Lib\\site-packages\\cryptography\\hazmat\\primitives\\ciphers\\__init__.py',
   'PYMODULE'),
  ('cryptography.hazmat.primitives.ciphers.aead',
   'C:\\Users\\RECEPCION NETCOM '
   'PLU\\AppData\\Local\\Programs\\Python\\Python311\\Lib\\site-packages\\cryptography\\hazmat\\primitives\\ciphers\\aead.py',
   'PYMODULE'),
  ('cryptography.hazmat.primitives.ciphers.algorithms',
   'C:\\Users\\RECEPCION NETCOM '
   'PLU\\AppData\\Local\\Programs\\Python\\Python311\\Lib\\site-packages\\cryptography\\hazmat\\primitives\\ciphers\\algorithms.py',
   'PYMODULE'),
  ('cryptography.hazmat.primitives.ciphers.base',
   'C:\\Users\\RECEPCION NETCOM '
   'PLU\\AppData\\Local\\Programs\\Python\\Python311\\Lib\\site-packages\\cryptography\\hazmat\\primitives\\ciphers\\base.py',
   'PYMODULE'),
  ('cryptography.hazmat.primitives.ciphers.modes',
   'C:\\Users\\RECEPCION NETCOM '
   'PLU\\AppData\\Local\\Programs\\Python\\Python311\\Lib\\site-packages\\cryptography\\hazmat\\primitives\\ciphers\\modes.py',
   'PYMODULE'),
  ('cryptography.hazmat.primitives.constant_time',
   'C:\\Users\\RECEPCION NETCOM '
   'PLU\\AppData\\Local\\Programs\\Python\\Python311\\Lib\\site-packages\\cryptography\\hazmat\\primitives\\constant_time.py',
   'PYMODULE'),
  ('cryptography.hazmat.primitives.hashes',
   'C:\\Users\\RECEPCION NETCOM '
   'PLU\\AppData\\Local\\Programs\\Python\\Python311\\Lib\\site-packages\\cryptography\\hazmat\\primitives\\hashes.py',
   'PYMODULE'),
  ('cryptography.hazmat.primitives.kdf',
   'C:\\Users\\RECEPCION NETCOM '
   'PLU\\AppData\\Local\\Programs\\Python\\Python311\\Lib\\site-packages\\cryptography\\hazmat\\primitives\\kdf\\__init__.py',
   'PYMODULE'),
  ('cryptography.hazmat.primitives.kdf.scrypt',
   'C:\\Users\\RECEPCION NETCOM '
   'PLU\\AppData\\Local\\Programs\\Python\\Python311\\Lib\\site-packages\\cryptography\\hazmat\\primitives\\kdf\\scrypt.py',
   'PYMODULE'),
  ('cryptography.hazmat.primitives.serialization',
   'C:\\Users\\RECEPCION NETCOM '
   'PLU\\AppData\\Local\\Programs\\Python\\Python311\\Lib\\site-packages\\cryptography\\hazmat\\primitives\\serialization\\__init__.py',
   'PYMODULE'),
  ('cryptography.hazmat.primitives.serialization.base',
   'C:\\Users\\RECEPCION NETCOM '
   'PLU\\AppData\\Local\\Programs\\Python\\Python311\\Lib\\site-packages\\cryptography\\hazmat\\primitives\\serialization\\base.py',
   'PYMODULE'),
  ('cryptography.hazmat.primitives.serialization.pkcs12',
   'C:\\Users\\RECEPCION NETCOM '
   'PLU\\AppData\\Local\\Programs\\Python\\Python311\\Lib\\site-packages\\cryptography\\hazmat\\primitives\\serialization\\pkcs12.py',
   'PYMODULE'),
  ('cryptography.hazmat.primitives.serialization.pkcs7',
   'C:\\Users\\RECEPCION NETCOM '
   'PLU\\AppData\\Local\\Programs\\Python\\Python311\\Lib\\site-packages\\cryptography\\hazmat\\primitives\\serialization\\pkcs7.py',
   'PYMODULE'),
  ('cryptography.hazmat.primitives.serialization.ssh',
   'C:\\Users\\RECEPCION NETCOM '
   'PLU\\AppData\\Local\\Programs\\Python\\Python311\\Lib\\site-packages\\cryptography\\hazmat\\primitives\\serialization\\ssh.py',
   'PYMODULE'),
  ('cryptography.utils',
   'C:\\Users\\RECEPCION NETCOM '
   'PLU\\AppData\\Local\\Programs\\Python\\Python311\\Lib\\site-packages\\cryptography\\utils.py',
   'PYMODULE'),
  ('cryptography.x509',
   'C:\\Users\\RECEPCION NETCOM '
   'PLU\\AppData\\Local\\Programs\\Python\\Python311\\Lib\\site-packages\\cryptography\\x509\\__init__.py',
   'PYMODULE'),
  ('cryptography.x509.base',
   'C:\\Users\\RECEPCION NETCOM '
   'PLU\\AppData\\Local\\Programs\\Python\\Python311\\Lib\\site-packages\\cryptography\\x509\\base.py',
   'PYMODULE'),
  ('cryptography.x509.certificate_transparency',
   'C:\\Users\\RECEPCION NETCOM '
   'PLU\\AppData\\Local\\Programs\\Python\\Python311\\Lib\\site-packages\\cryptography\\x509\\certificate_transparency.py',
   'PYMODULE'),
  ('cryptography.x509.extensions',
   'C:\\Users\\RECEPCION NETCOM '
   'PLU\\AppData\\Local\\Programs\\Python\\Python311\\Lib\\site-packages\\cryptography\\x509\\extensions.py',
   'PYMODULE'),
  ('cryptography.x509.general_name',
   'C:\\Users\\RECEPCION NETCOM '
   'PLU\\AppData\\Local\\Programs\\Python\\Python311\\Lib\\site-packages\\cryptography\\x509\\general_name.py',
   'PYMODULE'),
  ('cryptography.x509.name',
   'C:\\Users\\RECEPCION NETCOM '
   'PLU\\AppData\\Local\\Programs\\Python\\Python311\\Lib\\site-packages\\cryptography\\x509\\name.py',
   'PYMODULE'),
  ('cryptography.x509.oid',
   'C:\\Users\\RECEPCION NETCOM '
   'PLU\\AppData\\Local\\Programs\\Python\\Python311\\Lib\\site-packages\\cryptography\\x509\\oid.py',
   'PYMODULE'),
  ('csv',
   'C:\\Users\\RECEPCION NETCOM '
   'PLU\\AppData\\Local\\Programs\\Python\\Python311\\Lib\\csv.py',
   'PYMODULE'),
  ('dataclasses',
   'C:\\Users\\RECEPCION NETCOM '
   'PLU\\AppData\\Local\\Programs\\Python\\Python311\\Lib\\dataclasses.py',
   'PYMODULE'),
  ('datetime',
   'C:\\Users\\RECEPCION NETCOM '
   'PLU\\AppData\\Local\\Programs\\Python\\Python311\\Lib\\datetime.py',
   'PYMODULE'),
  ('decimal',
   'C:\\Users\\RECEPCION NETCOM '
   'PLU\\AppData\\Local\\Programs\\Python\\Python311\\Lib\\decimal.py',
   'PYMODULE'),
  ('dis',
   'C:\\Users\\RECEPCION NETCOM '
   'PLU\\AppData\\Local\\Programs\\Python\\Python311\\Lib\\dis.py',
   'PYMODULE'),
  ('email',
   'C:\\Users\\RECEPCION NETCOM '
   'PLU\\AppData\\Local\\Programs\\Python\\Python311\\Lib\\email\\__init__.py',
   'PYMODULE'),
  ('email._encoded_words',
   'C:\\Users\\RECEPCION NETCOM '
   'PLU\\AppData\\Local\\Programs\\Python\\Python311\\Lib\\email\\_encoded_words.py',
   'PYMODULE'),
  ('email._header_value_parser',
   'C:\\Users\\RECEPCION NETCOM '
   'PLU\\AppData\\Local\\Programs\\Python\\Python311\\Lib\\email\\_header_value_parser.py',
   'PYMODULE'),
  ('email._parseaddr',
   'C:\\Users\\RECEPCION NETCOM '
   'PLU\\AppData\\Local\\Programs\\Python\\Python311\\Lib\\email\\_parseaddr.py',
   'PYMODULE'),
  ('email._policybase',
   'C:\\Users\\RECEPCION NETCOM '
   'PLU\\AppData\\Local\\Programs\\Python\\Python311\\Lib\\email\\_policybase.py',
   'PYMODULE'),
  ('email.base64mime',
   'C:\\Users\\RECEPCION NETCOM '
   'PLU\\AppData\\Local\\Programs\\Python\\Python311\\Lib\\email\\base64mime.py',
   'PYMODULE'),
  ('email.charset',
   'C:\\Users\\RECEPCION NETCOM '
   'PLU\\AppData\\Local\\Programs\\Python\\Python311\\Lib\\email\\charset.py',
   'PYMODULE'),
  ('email.contentmanager',
   'C:\\Users\\RECEPCION NETCOM '
   'PLU\\AppData\\Local\\Programs\\Python\\Python311\\Lib\\email\\contentmanager.py',
   'PYMODULE'),
  ('email.encoders',
   'C:\\Users\\RECEPCION NETCOM '
   'PLU\\AppData\\Local\\Programs\\Python\\Python311\\Lib\\email\\encoders.py',
   'PYMODULE'),
  ('email.errors',
   'C:\\Users\\RECEPCION NETCOM '
   'PLU\\AppData\\Local\\Programs\\Python\\Python311\\Lib\\email\\errors.py',
   'PYMODULE'),
  ('email.feedparser',
   'C:\\Users\\RECEPCION NETCOM '
   'PLU\\AppData\\Local\\Programs\\Python\\Python311\\Lib\\email\\feedparser.py',
   'PYMODULE'),
  ('email.generator',
   'C:\\Users\\RECEPCION NETCOM '
   'PLU\\AppData\\Local\\Programs\\Python\\Python311\\Lib\\email\\generator.py',
   'PYMODULE'),
  ('email.header',
   'C:\\Users\\RECEPCION NETCOM '
   'PLU\\AppData\\Local\\Programs\\Python\\Python311\\Lib\\email\\header.py',
   'PYMODULE'),
  ('email.headerregistry',
   'C:\\Users\\RECEPCION NETCOM '
   'PLU\\AppData\\Local\\Programs\\Python\\Python311\\Lib\\email\\headerregistry.py',
   'PYMODULE'),
  ('email.iterators',
   'C:\\Users\\RECEPCION NETCOM '
   'PLU\\AppData\\Local\\Programs\\Python\\Python311\\Lib\\email\\iterators.py',
   'PYMODULE'),
  ('email.message',
   'C:\\Users\\RECEPCION NETCOM '
   'PLU\\AppData\\Local\\Programs\\Python\\Python311\\Lib\\email\\message.py',
   'PYMODULE'),
  ('email.parser',
   'C:\\Users\\RECEPCION NETCOM '
   'PLU\\AppData\\Local\\Programs\\Python\\Python311\\Lib\\email\\parser.py',
   'PYMODULE'),
  ('email.policy',
   'C:\\Users\\RECEPCION NETCOM '
   'PLU\\AppData\\Local\\Programs\\Python\\Python311\\Lib\\email\\policy.py',
   'PYMODULE'),
  ('email.quoprimime',
   'C:\\Users\\RECEPCION NETCOM '
   'PLU\\AppData\\Local\\Programs\\Python\\Python311\\Lib\\email\\quoprimime.py',
   'PYMODULE'),
  ('email.utils',
   'C:\\Users\\RECEPCION NETCOM '
   'PLU\\AppData\\Local\\Programs\\Python\\Python311\\Lib\\email\\utils.py',
   'PYMODULE'),
  ('fractions',
   'C:\\Users\\RECEPCION NETCOM '
   'PLU\\AppData\\Local\\Programs\\Python\\Python311\\Lib\\fractions.py',
   'PYMODULE'),
  ('ftplib',
   'C:\\Users\\RECEPCION NETCOM '
   'PLU\\AppData\\Local\\Programs\\Python\\Python311\\Lib\\ftplib.py',
   'PYMODULE'),
  ('getopt',
   'C:\\Users\\RECEPCION NETCOM '
   'PLU\\AppData\\Local\\Programs\\Python\\Python311\\Lib\\getopt.py',
   'PYMODULE'),
  ('getpass',
   'C:\\Users\\RECEPCION NETCOM '
   'PLU\\AppData\\Local\\Programs\\Python\\Python311\\Lib\\getpass.py',
   'PYMODULE'),
  ('gettext',
   'C:\\Users\\RECEPCION NETCOM '
   'PLU\\AppData\\Local\\Programs\\Python\\Python311\\Lib\\gettext.py',
   'PYMODULE'),
  ('gzip',
   'C:\\Users\\RECEPCION NETCOM '
   'PLU\\AppData\\Local\\Programs\\Python\\Python311\\Lib\\gzip.py',
   'PYMODULE'),
  ('hashlib',
   'C:\\Users\\RECEPCION NETCOM '
   'PLU\\AppData\\Local\\Programs\\Python\\Python311\\Lib\\hashlib.py',
   'PYMODULE'),
  ('hmac',
   'C:\\Users\\RECEPCION NETCOM '
   'PLU\\AppData\\Local\\Programs\\Python\\Python311\\Lib\\hmac.py',
   'PYMODULE'),
  ('host',
   'C:\\Users\\RECEPCION NETCOM PLU\\Documents\\Zabbix\\host.py',
   'PYMODULE'),
  ('http',
   'C:\\Users\\RECEPCION NETCOM '
   'PLU\\AppData\\Local\\Programs\\Python\\Python311\\Lib\\http\\__init__.py',
   'PYMODULE'),
  ('http.client',
   'C:\\Users\\RECEPCION NETCOM '
   'PLU\\AppData\\Local\\Programs\\Python\\Python311\\Lib\\http\\client.py',
   'PYMODULE'),
  ('http.cookiejar',
   'C:\\Users\\RECEPCION NETCOM '
   'PLU\\AppData\\Local\\Programs\\Python\\Python311\\Lib\\http\\cookiejar.py',
   'PYMODULE'),
  ('http.cookies',
   'C:\\Users\\RECEPCION NETCOM '
   'PLU\\AppData\\Local\\Programs\\Python\\Python311\\Lib\\http\\cookies.py',
   'PYMODULE'),
  ('idna',
   'C:\\Users\\RECEPCION NETCOM '
   'PLU\\AppData\\Local\\Programs\\Python\\Python311\\Lib\\site-packages\\idna\\__init__.py',
   'PYMODULE'),
  ('idna.core',
   'C:\\Users\\RECEPCION NETCOM '
   'PLU\\AppData\\Local\\Programs\\Python\\Python311\\Lib\\site-packages\\idna\\core.py',
   'PYMODULE'),
  ('idna.idnadata',
   'C:\\Users\\RECEPCION NETCOM '
   'PLU\\AppData\\Local\\Programs\\Python\\Python311\\Lib\\site-packages\\idna\\idnadata.py',
   'PYMODULE'),
  ('idna.intranges',
   'C:\\Users\\RECEPCION NETCOM '
   'PLU\\AppData\\Local\\Programs\\Python\\Python311\\Lib\\site-packages\\idna\\intranges.py',
   'PYMODULE'),
  ('idna.package_data',
   'C:\\Users\\RECEPCION NETCOM '
   'PLU\\AppData\\Local\\Programs\\Python\\Python311\\Lib\\site-packages\\idna\\package_data.py',
   'PYMODULE'),
  ('idna.uts46data',
   'C:\\Users\\RECEPCION NETCOM '
   'PLU\\AppData\\Local\\Programs\\Python\\Python311\\Lib\\site-packages\\idna\\uts46data.py',
   'PYMODULE'),
  ('importlib',
   'C:\\Users\\RECEPCION NETCOM '
   'PLU\\AppData\\Local\\Programs\\Python\\Python311\\Lib\\importlib\\__init__.py',
   'PYMODULE'),
  ('importlib._abc',
   'C:\\Users\\RECEPCION NETCOM '
   'PLU\\AppData\\Local\\Programs\\Python\\Python311\\Lib\\importlib\\_abc.py',
   'PYMODULE'),
  ('importlib._bootstrap',
   'C:\\Users\\RECEPCION NETCOM '
   'PLU\\AppData\\Local\\Programs\\Python\\Python311\\Lib\\importlib\\_bootstrap.py',
   'PYMODULE'),
  ('importlib._bootstrap_external',
   'C:\\Users\\RECEPCION NETCOM '
   'PLU\\AppData\\Local\\Programs\\Python\\Python311\\Lib\\importlib\\_bootstrap_external.py',
   'PYMODULE'),
  ('importlib.abc',
   'C:\\Users\\RECEPCION NETCOM '
   'PLU\\AppData\\Local\\Programs\\Python\\Python311\\Lib\\importlib\\abc.py',
   'PYMODULE'),
  ('importlib.machinery',
   'C:\\Users\\RECEPCION NETCOM '
   'PLU\\AppData\\Local\\Programs\\Python\\Python311\\Lib\\importlib\\machinery.py',
   'PYMODULE'),
  ('importlib.metadata',
   'C:\\Users\\RECEPCION NETCOM '
   'PLU\\AppData\\Local\\Programs\\Python\\Python311\\Lib\\importlib\\metadata\\__init__.py',
   'PYMODULE'),
  ('importlib.metadata._adapters',
   'C:\\Users\\RECEPCION NETCOM '
   'PLU\\AppData\\Local\\Programs\\Python\\Python311\\Lib\\importlib\\metadata\\_adapters.py',
   'PYMODULE'),
  ('importlib.metadata._collections',
   'C:\\Users\\RECEPCION NETCOM '
   'PLU\\AppData\\Local\\Programs\\Python\\Python311\\Lib\\importlib\\metadata\\_collections.py',
   'PYMODULE'),
  ('importlib.metadata._functools',
   'C:\\Users\\RECEPCION NETCOM '
   'PLU\\AppData\\Local\\Programs\\Python\\Python311\\Lib\\importlib\\metadata\\_functools.py',
   'PYMODULE'),
  ('importlib.metadata._itertools',
   'C:\\Users\\RECEPCION NETCOM '
   'PLU\\AppData\\Local\\Programs\\Python\\Python311\\Lib\\importlib\\metadata\\_itertools.py',
   'PYMODULE'),
  ('importlib.metadata._meta',
   'C:\\Users\\RECEPCION NETCOM '
   'PLU\\AppData\\Local\\Programs\\Python\\Python311\\Lib\\importlib\\metadata\\_meta.py',
   'PYMODULE'),
  ('importlib.metadata._text',
   'C:\\Users\\RECEPCION NETCOM '
   'PLU\\AppData\\Local\\Programs\\Python\\Python311\\Lib\\importlib\\metadata\\_text.py',
   'PYMODULE'),
  ('importlib.readers',
   'C:\\Users\\RECEPCION NETCOM '
   'PLU\\AppData\\Local\\Programs\\Python\\Python311\\Lib\\importlib\\readers.py',
   'PYMODULE'),
  ('importlib.resources',
   'C:\\Users\\RECEPCION NETCOM '
   'PLU\\AppData\\Local\\Programs\\Python\\Python311\\Lib\\importlib\\resources\\__init__.py',
   'PYMODULE'),
  ('importlib.resources._adapters',
   'C:\\Users\\RECEPCION NETCOM '
   'PLU\\AppData\\Local\\Programs\\Python\\Python311\\Lib\\importlib\\resources\\_adapters.py',
   'PYMODULE'),
  ('importlib.resources._common',
   'C:\\Users\\RECEPCION NETCOM '
   'PLU\\AppData\\Local\\Programs\\Python\\Python311\\Lib\\importlib\\resources\\_common.py',
   'PYMODULE'),
  ('importlib.resources._itertools',
   'C:\\Users\\RECEPCION NETCOM '
   'PLU\\AppData\\Local\\Programs\\Python\\Python311\\Lib\\importlib\\resources\\_itertools.py',
   'PYMODULE'),
  ('importlib.resources._legacy',
   'C:\\Users\\RECEPCION NETCOM '
   'PLU\\AppData\\Local\\Programs\\Python\\Python311\\Lib\\importlib\\resources\\_legacy.py',
   'PYMODULE'),
  ('importlib.resources.abc',
   'C:\\Users\\RECEPCION NETCOM '
   'PLU\\AppData\\Local\\Programs\\Python\\Python311\\Lib\\importlib\\resources\\abc.py',
   'PYMODULE'),
  ('importlib.resources.readers',
   'C:\\Users\\RECEPCION NETCOM '
   'PLU\\AppData\\Local\\Programs\\Python\\Python311\\Lib\\importlib\\resources\\readers.py',
   'PYMODULE'),
  ('importlib.util',
   'C:\\Users\\RECEPCION NETCOM '
   'PLU\\AppData\\Local\\Programs\\Python\\Python311\\Lib\\importlib\\util.py',
   'PYMODULE'),
  ('inspect',
   'C:\\Users\\RECEPCION NETCOM '
   'PLU\\AppData\\Local\\Programs\\Python\\Python311\\Lib\\inspect.py',
   'PYMODULE'),
  ('ipaddress',
   'C:\\Users\\RECEPCION NETCOM '
   'PLU\\AppData\\Local\\Programs\\Python\\Python311\\Lib\\ipaddress.py',
   'PYMODULE'),
  ('json',
   'C:\\Users\\RECEPCION NETCOM '
   'PLU\\AppData\\Local\\Programs\\Python\\Python311\\Lib\\json\\__init__.py',
   'PYMODULE'),
  ('json.decoder',
   'C:\\Users\\RECEPCION NETCOM '
   'PLU\\AppData\\Local\\Programs\\Python\\Python311\\Lib\\json\\decoder.py',
   'PYMODULE'),
  ('json.encoder',
   'C:\\Users\\RECEPCION NETCOM '
   'PLU\\AppData\\Local\\Programs\\Python\\Python311\\Lib\\json\\encoder.py',
   'PYMODULE'),
  ('json.scanner',
   'C:\\Users\\RECEPCION NETCOM '
   'PLU\\AppData\\Local\\Programs\\Python\\Python311\\Lib\\json\\scanner.py',
   'PYMODULE'),
  ('logging',
   'C:\\Users\\RECEPCION NETCOM '
   'PLU\\AppData\\Local\\Programs\\Python\\Python311\\Lib\\logging\\__init__.py',
   'PYMODULE'),
  ('lzma',
   'C:\\Users\\RECEPCION NETCOM '
   'PLU\\AppData\\Local\\Programs\\Python\\Python311\\Lib\\lzma.py',
   'PYMODULE'),
  ('mimetypes',
   'C:\\Users\\RECEPCION NETCOM '
   'PLU\\AppData\\Local\\Programs\\Python\\Python311\\Lib\\mimetypes.py',
   'PYMODULE'),
  ('netrc',
   'C:\\Users\\RECEPCION NETCOM '
   'PLU\\AppData\\Local\\Programs\\Python\\Python311\\Lib\\netrc.py',
   'PYMODULE'),
  ('nturl2path',
   'C:\\Users\\RECEPCION NETCOM '
   'PLU\\AppData\\Local\\Programs\\Python\\Python311\\Lib\\nturl2path.py',
   'PYMODULE'),
  ('numbers',
   'C:\\Users\\RECEPCION NETCOM '
   'PLU\\AppData\\Local\\Programs\\Python\\Python311\\Lib\\numbers.py',
   'PYMODULE'),
  ('opcode',
   'C:\\Users\\RECEPCION NETCOM '
   'PLU\\AppData\\Local\\Programs\\Python\\Python311\\Lib\\opcode.py',
   'PYMODULE'),
  ('pickle',
   'C:\\Users\\RECEPCION NETCOM '
   'PLU\\AppData\\Local\\Programs\\Python\\Python311\\Lib\\pickle.py',
   'PYMODULE'),
  ('pprint',
   'C:\\Users\\RECEPCION NETCOM '
   'PLU\\AppData\\Local\\Programs\\Python\\Python311\\Lib\\pprint.py',
   'PYMODULE'),
  ('py_compile',
   'C:\\Users\\RECEPCION NETCOM '
   'PLU\\AppData\\Local\\Programs\\Python\\Python311\\Lib\\py_compile.py',
   'PYMODULE'),
  ('pyzabbix',
   'C:\\Users\\RECEPCION NETCOM '
   'PLU\\AppData\\Local\\Programs\\Python\\Python311\\Lib\\site-packages\\pyzabbix\\__init__.py',
   'PYMODULE'),
  ('pyzabbix.api',
   'C:\\Users\\RECEPCION NETCOM '
   'PLU\\AppData\\Local\\Programs\\Python\\Python311\\Lib\\site-packages\\pyzabbix\\api.py',
   'PYMODULE'),
  ('pyzabbix.logger',
   'C:\\Users\\RECEPCION NETCOM '
   'PLU\\AppData\\Local\\Programs\\Python\\Python311\\Lib\\site-packages\\pyzabbix\\logger.py',
   'PYMODULE'),
  ('pyzabbix.sender',
   'C:\\Users\\RECEPCION NETCOM '
   'PLU\\AppData\\Local\\Programs\\Python\\Python311\\Lib\\site-packages\\pyzabbix\\sender.py',
   'PYMODULE'),
  ('pyzabbix.version',
   'C:\\Users\\RECEPCION NETCOM '
   'PLU\\AppData\\Local\\Programs\\Python\\Python311\\Lib\\site-packages\\pyzabbix\\version.py',
   'PYMODULE'),
  ('queue',
   'C:\\Users\\RECEPCION NETCOM '
   'PLU\\AppData\\Local\\Programs\\Python\\Python311\\Lib\\queue.py',
   'PYMODULE'),
  ('quopri',
   'C:\\Users\\RECEPCION NETCOM '
   'PLU\\AppData\\Local\\Programs\\Python\\Python311\\Lib\\quopri.py',
   'PYMODULE'),
  ('random',
   'C:\\Users\\RECEPCION NETCOM '
   'PLU\\AppData\\Local\\Programs\\Python\\Python311\\Lib\\random.py',
   'PYMODULE'),
  ('requests',
   'C:\\Users\\RECEPCION NETCOM '
   'PLU\\AppData\\Roaming\\Python\\Python311\\site-packages\\requests\\__init__.py',
   'PYMODULE'),
  ('requests.__version__',
   'C:\\Users\\RECEPCION NETCOM '
   'PLU\\AppData\\Roaming\\Python\\Python311\\site-packages\\requests\\__version__.py',
   'PYMODULE'),
  ('requests._internal_utils',
   'C:\\Users\\RECEPCION NETCOM '
   'PLU\\AppData\\Roaming\\Python\\Python311\\site-packages\\requests\\_internal_utils.py',
   'PYMODULE'),
  ('requests.adapters',
   'C:\\Users\\RECEPCION NETCOM '
   'PLU\\AppData\\Roaming\\Python\\Python311\\site-packages\\requests\\adapters.py',
   'PYMODULE'),
  ('requests.api',
   'C:\\Users\\RECEPCION NETCOM '
   'PLU\\AppData\\Roaming\\Python\\Python311\\site-packages\\requests\\api.py',
   'PYMODULE'),
  ('requests.auth',
   'C:\\Users\\RECEPCION NETCOM '
   'PLU\\AppData\\Roaming\\Python\\Python311\\site-packages\\requests\\auth.py',
   'PYMODULE'),
  ('requests.certs',
   'C:\\Users\\RECEPCION NETCOM '
   'PLU\\AppData\\Roaming\\Python\\Python311\\site-packages\\requests\\certs.py',
   'PYMODULE'),
  ('requests.compat',
   'C:\\Users\\RECEPCION NETCOM '
   'PLU\\AppData\\Roaming\\Python\\Python311\\site-packages\\requests\\compat.py',
   'PYMODULE'),
  ('requests.cookies',
   'C:\\Users\\RECEPCION NETCOM '
   'PLU\\AppData\\Roaming\\Python\\Python311\\site-packages\\requests\\cookies.py',
   'PYMODULE'),
  ('requests.exceptions',
   'C:\\Users\\RECEPCION NETCOM '
   'PLU\\AppData\\Roaming\\Python\\Python311\\site-packages\\requests\\exceptions.py',
   'PYMODULE'),
  ('requests.hooks',
   'C:\\Users\\RECEPCION NETCOM '
   'PLU\\AppData\\Roaming\\Python\\Python311\\site-packages\\requests\\hooks.py',
   'PYMODULE'),
  ('requests.models',
   'C:\\Users\\RECEPCION NETCOM '
   'PLU\\AppData\\Roaming\\Python\\Python311\\site-packages\\requests\\models.py',
   'PYMODULE'),
  ('requests.packages',
   'C:\\Users\\RECEPCION NETCOM '
   'PLU\\AppData\\Roaming\\Python\\Python311\\site-packages\\requests\\packages.py',
   'PYMODULE'),
  ('requests.sessions',
   'C:\\Users\\RECEPCION NETCOM '
   'PLU\\AppData\\Roaming\\Python\\Python311\\site-packages\\requests\\sessions.py',
   'PYMODULE'),
  ('requests.status_codes',
   'C:\\Users\\RECEPCION NETCOM '
   'PLU\\AppData\\Roaming\\Python\\Python311\\site-packages\\requests\\status_codes.py',
   'PYMODULE'),
  ('requests.structures',
   'C:\\Users\\RECEPCION NETCOM '
   'PLU\\AppData\\Roaming\\Python\\Python311\\site-packages\\requests\\structures.py',
   'PYMODULE'),
  ('requests.utils',
   'C:\\Users\\RECEPCION NETCOM '
   'PLU\\AppData\\Roaming\\Python\\Python311\\site-packages\\requests\\utils.py',
   'PYMODULE'),
  ('selectors',
   'C:\\Users\\RECEPCION NETCOM '
   'PLU\\AppData\\Local\\Programs\\Python\\Python311\\Lib\\selectors.py',
   'PYMODULE'),
  ('shlex',
   'C:\\Users\\RECEPCION NETCOM '
   'PLU\\AppData\\Local\\Programs\\Python\\Python311\\Lib\\shlex.py',
   'PYMODULE'),
  ('shutil',
   'C:\\Users\\RECEPCION NETCOM '
   'PLU\\AppData\\Local\\Programs\\Python\\Python311\\Lib\\shutil.py',
   'PYMODULE'),
  ('signal',
   'C:\\Users\\RECEPCION NETCOM '
   'PLU\\AppData\\Local\\Programs\\Python\\Python311\\Lib\\signal.py',
   'PYMODULE'),
  ('socket',
   'C:\\Users\\RECEPCION NETCOM '
   'PLU\\AppData\\Local\\Programs\\Python\\Python311\\Lib\\socket.py',
   'PYMODULE'),
  ('socks',
   'C:\\Users\\RECEPCION NETCOM '
   'PLU\\AppData\\Local\\Programs\\Python\\Python311\\Lib\\site-packages\\socks.py',
   'PYMODULE'),
  ('ssl',
   'C:\\Users\\RECEPCION NETCOM '
   'PLU\\AppData\\Local\\Programs\\Python\\Python311\\Lib\\ssl.py',
   'PYMODULE'),
  ('statistics',
   'C:\\Users\\RECEPCION NETCOM '
   'PLU\\AppData\\Local\\Programs\\Python\\Python311\\Lib\\statistics.py',
   'PYMODULE'),
  ('string',
   'C:\\Users\\RECEPCION NETCOM '
   'PLU\\AppData\\Local\\Programs\\Python\\Python311\\Lib\\string.py',
   'PYMODULE'),
  ('stringprep',
   'C:\\Users\\RECEPCION NETCOM '
   'PLU\\AppData\\Local\\Programs\\Python\\Python311\\Lib\\stringprep.py',
   'PYMODULE'),
  ('subprocess',
   'C:\\Users\\RECEPCION NETCOM '
   'PLU\\AppData\\Local\\Programs\\Python\\Python311\\Lib\\subprocess.py',
   'PYMODULE'),
  ('tarfile',
   'C:\\Users\\RECEPCION NETCOM '
   'PLU\\AppData\\Local\\Programs\\Python\\Python311\\Lib\\tarfile.py',
   'PYMODULE'),
  ('tempfile',
   'C:\\Users\\RECEPCION NETCOM '
   'PLU\\AppData\\Local\\Programs\\Python\\Python311\\Lib\\tempfile.py',
   'PYMODULE'),
  ('textwrap',
   'C:\\Users\\RECEPCION NETCOM '
   'PLU\\AppData\\Local\\Programs\\Python\\Python311\\Lib\\textwrap.py',
   'PYMODULE'),
  ('threading',
   'C:\\Users\\RECEPCION NETCOM '
   'PLU\\AppData\\Local\\Programs\\Python\\Python311\\Lib\\threading.py',
   'PYMODULE'),
  ('tracemalloc',
   'C:\\Users\\RECEPCION NETCOM '
   'PLU\\AppData\\Local\\Programs\\Python\\Python311\\Lib\\tracemalloc.py',
   'PYMODULE'),
  ('typing',
   'C:\\Users\\RECEPCION NETCOM '
   'PLU\\AppData\\Local\\Programs\\Python\\Python311\\Lib\\typing.py',
   'PYMODULE'),
  ('urllib3',
   'C:\\Users\\RECEPCION NETCOM '
   'PLU\\AppData\\Roaming\\Python\\Python311\\site-packages\\urllib3\\__init__.py',
   'PYMODULE'),
  ('urllib3._collections',
   'C:\\Users\\RECEPCION NETCOM '
   'PLU\\AppData\\Roaming\\Python\\Python311\\site-packages\\urllib3\\_collections.py',
   'PYMODULE'),
  ('urllib3._version',
   'C:\\Users\\RECEPCION NETCOM '
   'PLU\\AppData\\Roaming\\Python\\Python311\\site-packages\\urllib3\\_version.py',
   'PYMODULE'),
  ('urllib3.connection',
   'C:\\Users\\RECEPCION NETCOM '
   'PLU\\AppData\\Roaming\\Python\\Python311\\site-packages\\urllib3\\connection.py',
   'PYMODULE'),
  ('urllib3.connectionpool',
   'C:\\Users\\RECEPCION NETCOM '
   'PLU\\AppData\\Roaming\\Python\\Python311\\site-packages\\urllib3\\connectionpool.py',
   'PYMODULE'),
  ('urllib3.contrib',
   'C:\\Users\\RECEPCION NETCOM '
   'PLU\\AppData\\Roaming\\Python\\Python311\\site-packages\\urllib3\\contrib\\__init__.py',
   'PYMODULE'),
  ('urllib3.contrib._appengine_environ',
   'C:\\Users\\RECEPCION NETCOM '
   'PLU\\AppData\\Roaming\\Python\\Python311\\site-packages\\urllib3\\contrib\\_appengine_environ.py',
   'PYMODULE'),
  ('urllib3.contrib.pyopenssl',
   'C:\\Users\\RECEPCION NETCOM '
   'PLU\\AppData\\Roaming\\Python\\Python311\\site-packages\\urllib3\\contrib\\pyopenssl.py',
   'PYMODULE'),
  ('urllib3.contrib.socks',
   'C:\\Users\\RECEPCION NETCOM '
   'PLU\\AppData\\Roaming\\Python\\Python311\\site-packages\\urllib3\\contrib\\socks.py',
   'PYMODULE'),
  ('urllib3.exceptions',
   'C:\\Users\\RECEPCION NETCOM '
   'PLU\\AppData\\Roaming\\Python\\Python311\\site-packages\\urllib3\\exceptions.py',
   'PYMODULE'),
  ('urllib3.fields',
   'C:\\Users\\RECEPCION NETCOM '
   'PLU\\AppData\\Roaming\\Python\\Python311\\site-packages\\urllib3\\fields.py',
   'PYMODULE'),
  ('urllib3.filepost',
   'C:\\Users\\RECEPCION NETCOM '
   'PLU\\AppData\\Roaming\\Python\\Python311\\site-packages\\urllib3\\filepost.py',
   'PYMODULE'),
  ('urllib3.packages',
   'C:\\Users\\RECEPCION NETCOM '
   'PLU\\AppData\\Roaming\\Python\\Python311\\site-packages\\urllib3\\packages\\__init__.py',
   'PYMODULE'),
  ('urllib3.packages.backports',
   'C:\\Users\\RECEPCION NETCOM '
   'PLU\\AppData\\Roaming\\Python\\Python311\\site-packages\\urllib3\\packages\\backports\\__init__.py',
   'PYMODULE'),
  ('urllib3.packages.backports.makefile',
   'C:\\Users\\RECEPCION NETCOM '
   'PLU\\AppData\\Roaming\\Python\\Python311\\site-packages\\urllib3\\packages\\backports\\makefile.py',
   'PYMODULE'),
  ('urllib3.packages.six',
   'C:\\Users\\RECEPCION NETCOM '
   'PLU\\AppData\\Roaming\\Python\\Python311\\site-packages\\urllib3\\packages\\six.py',
   'PYMODULE'),
  ('urllib3.poolmanager',
   'C:\\Users\\RECEPCION NETCOM '
   'PLU\\AppData\\Roaming\\Python\\Python311\\site-packages\\urllib3\\poolmanager.py',
   'PYMODULE'),
  ('urllib3.request',
   'C:\\Users\\RECEPCION NETCOM '
   'PLU\\AppData\\Roaming\\Python\\Python311\\site-packages\\urllib3\\request.py',
   'PYMODULE'),
  ('urllib3.response',
   'C:\\Users\\RECEPCION NETCOM '
   'PLU\\AppData\\Roaming\\Python\\Python311\\site-packages\\urllib3\\response.py',
   'PYMODULE'),
  ('urllib3.util',
   'C:\\Users\\RECEPCION NETCOM '
   'PLU\\AppData\\Roaming\\Python\\Python311\\site-packages\\urllib3\\util\\__init__.py',
   'PYMODULE'),
  ('urllib3.util.connection',
   'C:\\Users\\RECEPCION NETCOM '
   'PLU\\AppData\\Roaming\\Python\\Python311\\site-packages\\urllib3\\util\\connection.py',
   'PYMODULE'),
  ('urllib3.util.proxy',
   'C:\\Users\\RECEPCION NETCOM '
   'PLU\\AppData\\Roaming\\Python\\Python311\\site-packages\\urllib3\\util\\proxy.py',
   'PYMODULE'),
  ('urllib3.util.queue',
   'C:\\Users\\RECEPCION NETCOM '
   'PLU\\AppData\\Roaming\\Python\\Python311\\site-packages\\urllib3\\util\\queue.py',
   'PYMODULE'),
  ('urllib3.util.request',
   'C:\\Users\\RECEPCION NETCOM '
   'PLU\\AppData\\Roaming\\Python\\Python311\\site-packages\\urllib3\\util\\request.py',
   'PYMODULE'),
  ('urllib3.util.response',
   'C:\\Users\\RECEPCION NETCOM '
   'PLU\\AppData\\Roaming\\Python\\Python311\\site-packages\\urllib3\\util\\response.py',
   'PYMODULE'),
  ('urllib3.util.retry',
   'C:\\Users\\RECEPCION NETCOM '
   'PLU\\AppData\\Roaming\\Python\\Python311\\site-packages\\urllib3\\util\\retry.py',
   'PYMODULE'),
  ('urllib3.util.ssl_',
   'C:\\Users\\RECEPCION NETCOM '
   'PLU\\AppData\\Roaming\\Python\\Python311\\site-packages\\urllib3\\util\\ssl_.py',
   'PYMODULE'),
  ('urllib3.util.ssl_match_hostname',
   'C:\\Users\\RECEPCION NETCOM '
   'PLU\\AppData\\Roaming\\Python\\Python311\\site-packages\\urllib3\\util\\ssl_match_hostname.py',
   'PYMODULE'),
  ('urllib3.util.ssltransport',
   'C:\\Users\\RECEPCION NETCOM '
   'PLU\\AppData\\Roaming\\Python\\Python311\\site-packages\\urllib3\\util\\ssltransport.py',
   'PYMODULE'),
  ('urllib3.util.timeout',
   'C:\\Users\\RECEPCION NETCOM '
   'PLU\\AppData\\Roaming\\Python\\Python311\\site-packages\\urllib3\\util\\timeout.py',
   'PYMODULE'),
  ('urllib3.util.url',
   'C:\\Users\\RECEPCION NETCOM '
   'PLU\\AppData\\Roaming\\Python\\Python311\\site-packages\\urllib3\\util\\url.py',
   'PYMODULE'),
  ('urllib3.util.wait',
   'C:\\Users\\RECEPCION NETCOM '
   'PLU\\AppData\\Roaming\\Python\\Python311\\site-packages\\urllib3\\util\\wait.py',
   'PYMODULE'),
  ('wisphub',
   'C:\\Users\\RECEPCION NETCOM PLU\\Documents\\Zabbix\\wisphub.py',
   'PYMODULE'),
  ('zabbix',
   'C:\\Users\\RECEPCION NETCOM PLU\\Documents\\Zabbix\\zabbix.py',
   'PYMODULE'),
  ('zipfile',
   'C:\\Users\\RECEPCION NETCOM '
   'PLU\\AppData\\Local\\Programs\\Python\\Python311\\Lib\\zipfile.py',
   'PYMODULE')])
